RippleCarry/simulation/qsim/RippleCarry.msim.vcd
$comment
	File created using the following command:
		vcd file RippleCarry.msim.vcd -direction
$end
$date
	Wed Sep 12 15:16:50 2018
$end
$version
	ModelSim Version 10.1d
$end
$timescale
	1ps
$end
$scope module RippleCarry_vlg_vec_tst $end
$var reg 4 ! a [3:0] $end
$var reg 4 " b [3:0] $end
$var reg 1 # ci $end
$var wire 1 $ cout $end
$var wire 1 % s [3] $end
$var wire 1 & s [2] $end
$var wire 1 ' s [1] $end
$var wire 1 ( s [0] $end
$var wire 1 ) sampler $end
$scope module i1 $end
$var wire 1 * gnd $end
$var wire 1 + vcc $end
$var wire 1 , unknown $end
$var tri1 1 - devclrn $end
$var tri1 1 . devpor $end
$var tri1 1 / devoe $end
$var wire 1 0 s[0]~output_o $end
$var wire 1 1 s[1]~output_o $end
$var wire 1 2 s[2]~output_o $end
$var wire 1 3 s[3]~output_o $end
$var wire 1 4 cout~output_o $end
$var wire 1 5 b[0]~input_o $end
$var wire 1 6 ci~input_o $end
$var wire 1 7 a[0]~input_o $end
$var wire 1 8 PET0|s~0_combout $end
$var wire 1 9 b[1]~input_o $end
$var wire 1 : PET0|cout~0_combout $end
$var wire 1 ; a[1]~input_o $end
$var wire 1 < FIRST:1:PET1|s~combout $end
$var wire 1 = b[2]~input_o $end
$var wire 1 > a[2]~input_o $end
$var wire 1 ? FIRST:1:PET1|cout~0_combout $end
$var wire 1 @ FIRST:2:PET1|s~combout $end
$var wire 1 A b[3]~input_o $end
$var wire 1 B a[3]~input_o $end
$var wire 1 C FIRST:2:PET1|cout~0_combout $end
$var wire 1 D FIRST:3:PET1|s~combout $end
$var wire 1 E FIRST:3:PET1|cout~0_combout $end
$upscope $end
$upscope $end
$enddefinitions $end
#0
$dumpvars
b0 !
b0 "
0#
0$
0(
0'
0&
0%
x)
0*
1+
x,
1-
1.
1/
00
01
02
03
04
05
06
07
08
09
0:
0;
0<
0=
0>
0?
0@
0A
0B
0C
0D
0E
$end
#5000
b1000 !
b1100 !
b1110 !
b1111 !
17
1;
1>
1B
0)
18
1<
1@
1D
10
11
12
13
1(
1'
1&
1%
#10000
b1000 "
b1100 "
b1110 "
b1111 "
b111 !
b11 !
b1 !
b0 !
07
0;
0>
0B
15
19
1=
1A
1)
#15000
b1000 !
b1100 !
b1110 !
b1111 !
17
1;
1>
1B
0)
1:
1?
1C
08
0<
0@
1E
0D
00
01
02
14
03
0(
0'
0&
1$
0%
1<
1@
1D
11
12
13
1'
1&
1%
#20000
1#
b111 "
b11 "
b1 "
b0 "
b111 !
b11 !
b1 !
b0 !
16
07
0;
0>
0B
05
09
0=
0A
1)
0:
0?
0C
18
0E
10
04
1(
0$
0<
0@
0D
01
02
03
0'
0&
0%
#25000
b1000 !
b1100 !
b1110 !
b1111 !
17
1;
1>
1B
0)
1:
08
1<
1@
1D
1?
00
11
12
13
0(
1'
1&
1%
0<
1C
01
0'
0@
02
0&
1E
0D
14
03
1$
0%
#30000
b1000 "
b1100 "
b1110 "
b1111 "
b111 !
b11 !
b1 !
b0 !
07
0;
0>
0B
15
19
1=
1A
1)
#35000
b1000 !
b1100 !
b1110 !
b1111 !
17
1;
1>
1B
0)
18
1<
1@
1D
10
11
12
13
1(
1'
1&
1%
#40000
0#
b111 "
b11 "
b1 "
b0 "
b111 !
b11 !
b1 !
b0 !
06
07
0;
0>
0B
05
09
0=
0A
1)
0:
0?
0C
08
0E
00
04
0(
0$
0<
0@
0D
01
02
03
0'
0&
0%
#45000
b1000 !
b1100 !
b1110 !
b1111 !
17
1;
1>
1B
0)
18
1<
1@
1D
10
11
12
13
1(
1'
1&
1%
#50000
b1000 "
b1100 "
b1110 "
b1111 "
b111 !
b11 !
b1 !
b0 !
07
0;
0>
0B
15
19
1=
1A
1)
#55000
b1000 !
b1100 !
b1110 !
b1111 !
17
1;
1>
1B
0)
1:
1?
1C
08
0<
0@
1E
0D
00
01
02
14
03
0(
0'
0&
1$
0%
1<
1@
1D
11
12
13
1'
1&
1%
#60000
1#
b111 "
b11 "
b1 "
b0 "
b111 !
b11 !
b1 !
b0 !
16
07
0;
0>
0B
05
09
0=
0A
1)
0:
0?
0C
18
0E
10
04
1(
0$
0<
0@
0D
01
02
03
0'
0&
0%
#65000
b1000 !
b1100 !
b1110 !
b1111 !
17
1;
1>
1B
0)
1:
08
1<
1@
1D
1?
00
11
12
13
0(
1'
1&
1%
0<
1C
01
0'
0@
02
0&
1E
0D
14
03
1$
0%
#70000
b1000 "
b1100 "
b1110 "
b1111 "
b111 !
b11 !
b1 !
b0 !
07
0;
0>
0B
15
19
1=
1A
1)
#75000
b1000 !
b1100 !
b1110 !
b1111 !
17
1;
1>
1B
0)
18
1<
1@
1D
10
11
12
13
1(
1'
1&
1%
#80000
0#
b111 "
b11 "
b1 "
b0 "
b111 !
b11 !
b1 !
b0 !
06
07
0;
0>
0B
05
09
0=
0A
1)
0:
0?
0C
08
0E
00
04
0(
0$
0<
0@
0D
01
02
03
0'
0&
0%
#85000
b1000 !
b1100 !
b1110 !
b1111 !
17
1;
1>
1B
0)
18
1<
1@
1D
10
11
12
13
1(
1'
1&
1%
#90000
b1000 "
b1100 "
b1110 "
b1111 "
b111 !
b11 !
b1 !
b0 !
07
0;
0>
0B
15
19
1=
1A
1)
#95000
b1000 !
b1100 !
b1110 !
b1111 !
17
1;
1>
1B
0)
1:
1?
1C
08
0<
0@
1E
0D
00
01
02
14
03
0(
0'
0&
1$
0%
1<
1@
1D
11
12
13
1'
1&
1%
#100000
1#
b111 "
b11 "
b1 "
b0 "
b111 !
b11 !
b1 !
b0 !
16
07
0;
0>
0B
05
09
0=
0A
1)
0:
0?
0C
18
0E
10
04
1(
0$
0<
0@
0D
01
02
03
0'
0&
0%
#105000
b1000 !
b1100 !
b1110 !
b1111 !
17
1;
1>
1B
0)
1:
08
1<
1@
1D
1?
00
11
12
13
0(
1'
1&
1%
0<
1C
01
0'
0@
02
0&
1E
0D
14
03
1$
0%
#110000
b1000 "
b1100 "
b1110 "
b1111 "
b111 !
b11 !
b1 !
b0 !
07
0;
0>
0B
15
19
1=
1A
1)
#115000
b1000 !
b1100 !
b1110 !
b1111 !
17
1;
1>
1B
0)
18
1<
1@
1D
10
11
12
13
1(
1'
1&
1%
#120000
0#
b111 "
b11 "
b1 "
b0 "
b111 !
b11 !
b1 !
b0 !
06
07
0;
0>
0B
05
09
0=
0A
1)
0:
0?
0C
08
0E
00
04
0(
0$
0<
0@
0D
01
02
03
0'
0&
0%
#125000
b1000 !
b1100 !
b1110 !
b1111 !
17
1;
1>
1B
0)
18
1<
1@
1D
10
11
12
13
1(
1'
1&
1%
#130000
b1000 "
b1100 "
b1110 "
b1111 "
b111 !
b11 !
b1 !
b0 !
07
0;
0>
0B
15
19
1=
1A
1)
#135000
b1000 !
b1100 !
b1110 !
b1111 !
17
1;
1>
1B
0)
1:
1?
1C
08
0<
0@
1E
0D
00
01
02
14
03
0(
0'
0&
1$
0%
1<
1@
1D
11
12
13
1'
1&
1%
#140000
1#
b111 "
b11 "
b1 "
b0 "
b111 !
b11 !
b1 !
b0 !
16
07
0;
0>
0B
05
09
0=
0A
1)
0:
0?
0C
18
0E
10
04
1(
0$
0<
0@
0D
01
02
03
0'
0&
0%
#145000
b1000 !
b1100 !
b1110 !
b1111 !
17
1;
1>
1B
0)
1:
08
1<
1@
1D
1?
00
11
12
13
0(
1'
1&
1%
0<
1C
01
0'
0@
02
0&
1E
0D
14
03
1$
0%
#150000
b1000 "
b1100 "
b1110 "
b1111 "
b111 !
b11 !
b1 !
b0 !
07
0;
0>
0B
15
19
1=
1A
1)
#155000
b1000 !
b1100 !
b1110 !
b1111 !
17
1;
1>
1B
0)
18
1<
1@
1D
10
11
12
13
1(
1'
1&
1%
#160000
0#
b111 "
b11 "
b1 "
b0 "
b111 !
b11 !
b1 !
b0 !
06
07
0;
0>
0B
05
09
0=
0A
1)
0:
0?
0C
08
0E
00
04
0(
0$
0<
0@
0D
01
02
03
0'
0&
0%
#165000
b1000 !
b1100 !
b1110 !
b1111 !
17
1;
1>
1B
0)
18
1<
1@
1D
10
11
12
13
1(
1'
1&
1%
#170000
b1000 "
b1100 "
b1110 "
b1111 "
b111 !
b11 !
b1 !
b0 !
07
0;
0>
0B
15
19
1=
1A
1)
#175000
b1000 !
b1100 !
b1110 !
b1111 !
17
1;
1>
1B
0)
1:
1?
1C
08
0<
0@
1E
0D
00
01
02
14
03
0(
0'
0&
1$
0%
1<
1@
1D
11
12
13
1'
1&
1%
#180000
1#
b111 "
b11 "
b1 "
b0 "
b111 !
b11 !
b1 !
b0 !
16
07
0;
0>
0B
05
09
0=
0A
1)
0:
0?
0C
18
0E
10
04
1(
0$
0<
0@
0D
01
02
03
0'
0&
0%
#185000
b1000 !
b1100 !
b1110 !
b1111 !
17
1;
1>
1B
0)
1:
08
1<
1@
1D
1?
00
11
12
13
0(
1'
1&
1%
0<
1C
01
0'
0@
02
0&
1E
0D
14
03
1$
0%
#190000
b1000 "
b1100 "
b1110 "
b1111 "
b111 !
b11 !
b1 !
b0 !
07
0;
0>
0B
15
19
1=
1A
1)
#195000
b1000 !
b1100 !
b1110 !
b1111 !
17
1;
1>
1B
0)
18
1<
1@
1D
10
11
12
13
1(
1'
1&
1%
#200000
0#
b111 "
b11 "
b1 "
b0 "
b111 !
b11 !
b1 !
b0 !
06
07
0;
0>
0B
05
09
0=
0A
1)
0:
0?
0C
08
0E
00
04
0(
0$
0<
0@
0D
01
02
03
0'
0&
0%
#205000
b1000 !
b1100 !
b1110 !
b1111 !
17
1;
1>
1B
0)
18
1<
1@
1D
10
11
12
13
1(
1'
1&
1%
#210000
b1000 "
b1100 "
b1110 "
b1111 "
b111 !
b11 !
b1 !
b0 !
07
0;
0>
0B
15
19
1=
1A
1)
#215000
b1000 !
b1100 !
b1110 !
b1111 !
17
1;
1>
1B
0)
1:
1?
1C
08
0<
0@
1E
0D
00
01
02
14
03
0(
0'
0&
1$
0%
1<
1@
1D
11
12
13
1'
1&
1%
#220000
1#
b111 "
b11 "
b1 "
b0 "
b111 !
b11 !
b1 !
b0 !
16
07
0;
0>
0B
05
09
0=
0A
1)
0:
0?
0C
18
0E
10
04
1(
0$
0<
0@
0D
01
02
03
0'
0&
0%
#225000
b1000 !
b1100 !
b1110 !
b1111 !
17
1;
1>
1B
0)
1:
08
1<
1@
1D
1?
00
11
12
13
0(
1'
1&
1%
0<
1C
01
0'
0@
02
0&
1E
0D
14
03
1$
0%
#230000
b1000 "
b1100 "
b1110 "
b1111 "
b111 !
b11 !
b1 !
b0 !
07
0;
0>
0B
15
19
1=
1A
1)
#235000
b1000 !
b1100 !
b1110 !
b1111 !
17
1;
1>
1B
0)
18
1<
1@
1D
10
11
12
13
1(
1'
1&
1%
#240000
0#
b111 "
b11 "
b1 "
b0 "
b111 !
b11 !
b1 !
b0 !
06
07
0;
0>
0B
05
09
0=
0A
1)
0:
0?
0C
08
0E
00
04
0(
0$
0<
0@
0D
01
02
03
0'
0&
0%
#245000
b1000 !
b1100 !
b1110 !
b1111 !
17
1;
1>
1B
0)
18
1<
1@
1D
10
11
12
13
1(
1'
1&
1%
#250000
b1000 "
b1100 "
b1110 "
b1111 "
b111 !
b11 !
b1 !
b0 !
07
0;
0>
0B
15
19
1=
1A
1)
#255000
b1000 !
b1100 !
b1110 !
b1111 !
17
1;
1>
1B
0)
1:
1?
1C
08
0<
0@
1E
0D
00
01
02
14
03
0(
0'
0&
1$
0%
1<
1@
1D
11
12
13
1'
1&
1%
#260000
1#
b111 "
b11 "
b1 "
b0 "
b111 !
b11 !
b1 !
b0 !
16
07
0;
0>
0B
05
09
0=
0A
1)
0:
0?
0C
18
0E
10
04
1(
0$
0<
0@
0D
01
02
03
0'
0&
0%
#265000
b1000 !
b1100 !
b1110 !
b1111 !
17
1;
1>
1B
0)
1:
08
1<
1@
1D
1?
00
11
12
13
0(
1'
1&
1%
0<
1C
01
0'
0@
02
0&
1E
0D
14
03
1$
0%
#270000
b1000 "
b1100 "
b1110 "
b1111 "
b111 !
b11 !
b1 !
b0 !
07
0;
0>
0B
15
19
1=
1A
1)
#275000
b1000 !
b1100 !
b1110 !
b1111 !
17
1;
1>
1B
0)
18
1<
1@
1D
10
11
12
13
1(
1'
1&
1%
#280000
0#
b111 "
b11 "
b1 "
b0 "
b111 !
b11 !
b1 !
b0 !
06
07
0;
0>
0B
05
09
0=
0A
1)
0:
0?
0C
08
0E
00
04
0(
0$
0<
0@
0D
01
02
03
0'
0&
0%
#285000
b1000 !
b1100 !
b1110 !
b1111 !
17
1;
1>
1B
0)
18
1<
1@
1D
10
11
12
13
1(
1'
1&
1%
#290000
b1000 "
b1100 "
b1110 "
b1111 "
b111 !
b11 !
b1 !
b0 !
07
0;
0>
0B
15
19
1=
1A
1)
#295000
b1000 !
b1100 !
b1110 !
b1111 !
17
1;
1>
1B
0)
1:
1?
1C
08
0<
0@
1E
0D
00
01
02
14
03
0(
0'
0&
1$
0%
1<
1@
1D
11
12
13
1'
1&
1%
#300000
1#
b111 "
b11 "
b1 "
b0 "
b111 !
b11 !
b1 !
b0 !
16
07
0;
0>
0B
05
09
0=
0A
1)
0:
0?
0C
18
0E
10
04
1(
0$
0<
0@
0D
01
02
03
0'
0&
0%
#305000
b1000 !
b1100 !
b1110 !
b1111 !
17
1;
1>
1B
0)
1:
08
1<
1@
1D
1?
00
11
12
13
0(
1'
1&
1%
0<
1C
01
0'
0@
02
0&
1E
0D
14
03
1$
0%
#310000
b1000 "
b1100 "
b1110 "
b1111 "
b111 !
b11 !
b1 !
b0 !
07
0;
0>
0B
15
19
1=
1A
1)
#315000
b1000 !
b1100 !
b1110 !
b1111 !
17
1;
1>
1B
0)
18
1<
1@
1D
10
11
12
13
1(
1'
1&
1%
#320000
0#
b111 "
b11 "
b1 "
b0 "
b111 !
b11 !
b1 !
b0 !
06
07
0;
0>
0B
05
09
0=
0A
1)
0:
0?
0C
08
0E
00
04
0(
0$
0<
0@
0D
01
02
03
0'
0&
0%
#325000
b1000 !
b1100 !
b1110 !
b1111 !
17
1;
1>
1B
0)
18
1<
1@
1D
10
11
12
13
1(
1'
1&
1%
#330000
b1000 "
b1100 "
b1110 "
b1111 "
b111 !
b11 !
b1 !
b0 !
07
0;
0>
0B
15
19
1=
1A
1)
#335000
b1000 !
b1100 !
b1110 !
b1111 !
17
1;
1>
1B
0)
1:
1?
1C
08
0<
0@
1E
0D
00
01
02
14
03
0(
0'
0&
1$
0%
1<
1@
1D
11
12
13
1'
1&
1%
#340000
1#
b111 "
b11 "
b1 "
b0 "
b111 !
b11 !
b1 !
b0 !
16
07
0;
0>
0B
05
09
0=
0A
1)
0:
0?
0C
18
0E
10
04
1(
0$
0<
0@
0D
01
02
03
0'
0&
0%
#345000
b1000 !
b1100 !
b1110 !
b1111 !
17
1;
1>
1B
0)
1:
08
1<
1@
1D
1?
00
11
12
13
0(
1'
1&
1%
0<
1C
01
0'
0@
02
0&
1E
0D
14
03
1$
0%
#350000
b1000 "
b1100 "
b1110 "
b1111 "
b111 !
b11 !
b1 !
b0 !
07
0;
0>
0B
15
19
1=
1A
1)
#355000
b1000 !
b1100 !
b1110 !
b1111 !
17
1;
1>
1B
0)
18
1<
1@
1D
10
11
12
13
1(
1'
1&
1%
#360000
0#
b111 "
b11 "
b1 "
b0 "
b111 !
b11 !
b1 !
b0 !
06
07
0;
0>
0B
05
09
0=
0A
1)
0:
0?
0C
08
0E
00
04
0(
0$
0<
0@
0D
01
02
03
0'
0&
0%
#365000
b1000 !
b1100 !
b1110 !
b1111 !
17
1;
1>
1B
0)
18
1<
1@
1D
10
11
12
13
1(
1'
1&
1%
#370000
b1000 "
b1100 "
b1110 "
b1111 "
b111 !
b11 !
b1 !
b0 !
07
0;
0>
0B
15
19
1=
1A
1)
#375000
b1000 !
b1100 !
b1110 !
b1111 !
17
1;
1>
1B
0)
1:
1?
1C
08
0<
0@
1E
0D
00
01
02
14
03
0(
0'
0&
1$
0%
1<
1@
1D
11
12
13
1'
1&
1%
#380000
1#
b111 "
b11 "
b1 "
b0 "
b111 !
b11 !
b1 !
b0 !
16
07
0;
0>
0B
05
09
0=
0A
1)
0:
0?
0C
18
0E
10
04
1(
0$
0<
0@
0D
01
02
03
0'
0&
0%
#385000
b1000 !
b1100 !
b1110 !
b1111 !
17
1;
1>
1B
0)
1:
08
1<
1@
1D
1?
00
11
12
13
0(
1'
1&
1%
0<
1C
01
0'
0@
02
0&
1E
0D
14
03
1$
0%
#390000
b1000 "
b1100 "
b1110 "
b1111 "
b111 !
b11 !
b1 !
b0 !
07
0;
0>
0B
15
19
1=
1A
1)
#395000
b1000 !
b1100 !
b1110 !
b1111 !
17
1;
1>
1B
0)
18
1<
1@
1D
10
11
12
13
1(
1'
1&
1%
#400000
0#
b111 "
b11 "
b1 "
b0 "
b111 !
b11 !
b1 !
b0 !
06
07
0;
0>
0B
05
09
0=
0A
1)
0:
0?
0C
08
0E
00
04
0(
0$
0<
0@
0D
01
02
03
0'
0&
0%
#405000
b1000 !
b1100 !
b1110 !
b1111 !
17
1;
1>
1B
0)
18
1<
1@
1D
10
11
12
13
1(
1'
1&
1%
#410000
b1000 "
b1100 "
b1110 "
b1111 "
b111 !
b11 !
b1 !
b0 !
07
0;
0>
0B
15
19
1=
1A
1)
#415000
b1000 !
b1100 !
b1110 !
b1111 !
17
1;
1>
1B
0)
1:
1?
1C
08
0<
0@
1E
0D
00
01
02
14
03
0(
0'
0&
1$
0%
1<
1@
1D
11
12
13
1'
1&
1%
#420000
1#
b111 "
b11 "
b1 "
b0 "
b111 !
b11 !
b1 !
b0 !
16
07
0;
0>
0B
05
09
0=
0A
1)
0:
0?
0C
18
0E
10
04
1(
0$
0<
0@
0D
01
02
03
0'
0&
0%
#425000
b1000 !
b1100 !
b1110 !
b1111 !
17
1;
1>
1B
0)
1:
08
1<
1@
1D
1?
00
11
12
13
0(
1'
1&
1%
0<
1C
01
0'
0@
02
0&
1E
0D
14
03
1$
0%
#430000
b1000 "
b1100 "
b1110 "
b1111 "
b111 !
b11 !
b1 !
b0 !
07
0;
0>
0B
15
19
1=
1A
1)
#435000
b1000 !
b1100 !
b1110 !
b1111 !
17
1;
1>
1B
0)
18
1<
1@
1D
10
11
12
13
1(
1'
1&
1%
#440000
0#
b111 "
b11 "
b1 "
b0 "
b111 !
b11 !
b1 !
b0 !
06
07
0;
0>
0B
05
09
0=
0A
1)
0:
0?
0C
08
0E
00
04
0(
0$
0<
0@
0D
01
02
03
0'
0&
0%
#445000
b1000 !
b1100 !
b1110 !
b1111 !
17
1;
1>
1B
0)
18
1<
1@
1D
10
11
12
13
1(
1'
1&
1%
#450000
b1000 "
b1100 "
b1110 "
b1111 "
b111 !
b11 !
b1 !
b0 !
07
0;
0>
0B
15
19
1=
1A
1)
#455000
b1000 !
b1100 !
b1110 !
b1111 !
17
1;
1>
1B
0)
1:
1?
1C
08
0<
0@
1E
0D
00
01
02
14
03
0(
0'
0&
1$
0%
1<
1@
1D
11
12
13
1'
1&
1%
#460000
1#
b111 "
b11 "
b1 "
b0 "
b111 !
b11 !
b1 !
b0 !
16
07
0;
0>
0B
05
09
0=
0A
1)
0:
0?
0C
18
0E
10
04
1(
0$
0<
0@
0D
01
02
03
0'
0&
0%
#465000
b1000 !
b1100 !
b1110 !
b1111 !
17
1;
1>
1B
0)
1:
08
1<
1@
1D
1?
00
11
12
13
0(
1'
1&
1%
0<
1C
01
0'
0@
02
0&
1E
0D
14
03
1$
0%
#470000
b1000 "
b1100 "
b1110 "
b1111 "
b111 !
b11 !
b1 !
b0 !
07
0;
0>
0B
15
19
1=
1A
1)
#475000
b1000 !
b1100 !
b1110 !
b1111 !
17
1;
1>
1B
0)
18
1<
1@
1D
10
11
12
13
1(
1'
1&
1%
#480000
0#
b111 "
b11 "
b1 "
b0 "
b111 !
b11 !
b1 !
b0 !
06
07
0;
0>
0B
05
09
0=
0A
1)
0:
0?
0C
08
0E
00
04
0(
0$
0<
0@
0D
01
02
03
0'
0&
0%
#485000
b1000 !
b1100 !
b1110 !
b1111 !
17
1;
1>
1B
0)
18
1<
1@
1D
10
11
12
13
1(
1'
1&
1%
#490000
b1000 "
b1100 "
b1110 "
b1111 "
b111 !
b11 !
b1 !
b0 !
07
0;
0>
0B
15
19
1=
1A
1)
#495000
b1000 !
b1100 !
b1110 !
b1111 !
17
1;
1>
1B
0)
1:
1?
1C
08
0<
0@
1E
0D
00
01
02
14
03
0(
0'
0&
1$
0%
1<
1@
1D
11
12
13
1'
1&
1%
#500000
1#
b111 "
b11 "
b1 "
b0 "
b111 !
b11 !
b1 !
b0 !
16
07
0;
0>
0B
05
09
0=
0A
1)
0:
0?
0C
18
0E
10
04
1(
0$
0<
0@
0D
01
02
03
0'
0&
0%
#505000
b1000 !
b1100 !
b1110 !
b1111 !
17
1;
1>
1B
0)
1:
08
1<
1@
1D
1?
00
11
12
13
0(
1'
1&
1%
0<
1C
01
0'
0@
02
0&
1E
0D
14
03
1$
0%
#510000
b1000 "
b1100 "
b1110 "
b1111 "
b111 !
b11 !
b1 !
b0 !
07
0;
0>
0B
15
19
1=
1A
1)
#515000
b1000 !
b1100 !
b1110 !
b1111 !
17
1;
1>
1B
0)
18
1<
1@
1D
10
11
12
13
1(
1'
1&
1%
#520000
0#
b111 "
b11 "
b1 "
b0 "
b111 !
b11 !
b1 !
b0 !
06
07
0;
0>
0B
05
09
0=
0A
1)
0:
0?
0C
08
0E
00
04
0(
0$
0<
0@
0D
01
02
03
0'
0&
0%
#525000
b1000 !
b1100 !
b1110 !
b1111 !
17
1;
1>
1B
0)
18
1<
1@
1D
10
11
12
13
1(
1'
1&
1%
#530000
b1000 "
b1100 "
b1110 "
b1111 "
b111 !
b11 !
b1 !
b0 !
07
0;
0>
0B
15
19
1=
1A
1)
#535000
b1000 !
b1100 !
b1110 !
b1111 !
17
1;
1>
1B
0)
1:
1?
1C
08
0<
0@
1E
0D
00
01
02
14
03
0(
0'
0&
1$
0%
1<
1@
1D
11
12
13
1'
1&
1%
#540000
1#
b111 "
b11 "
b1 "
b0 "
b111 !
b11 !
b1 !
b0 !
16
07
0;
0>
0B
05
09
0=
0A
1)
0:
0?
0C
18
0E
10
04
1(
0$
0<
0@
0D
01
02
03
0'
0&
0%
#545000
b1000 !
b1100 !
b1110 !
b1111 !
17
1;
1>
1B
0)
1:
08
1<
1@
1D
1?
00
11
12
13
0(
1'
1&
1%
0<
1C
01
0'
0@
02
0&
1E
0D
14
03
1$
0%
#550000
b1000 "
b1100 "
b1110 "
b1111 "
b111 !
b11 !
b1 !
b0 !
07
0;
0>
0B
15
19
1=
1A
1)
#555000
b1000 !
b1100 !
b1110 !
b1111 !
17
1;
1>
1B
0)
18
1<
1@
1D
10
11
12
13
1(
1'
1&
1%
#560000
0#
b111 "
b11 "
b1 "
b0 "
b111 !
b11 !
b1 !
b0 !
06
07
0;
0>
0B
05
09
0=
0A
1)
0:
0?
0C
08
0E
00
04
0(
0$
0<
0@
0D
01
02
03
0'
0&
0%
#565000
b1000 !
b1100 !
b1110 !
b1111 !
17
1;
1>
1B
0)
18
1<
1@
1D
10
11
12
13
1(
1'
1&
1%
#570000
b1000 "
b1100 "
b1110 "
b1111 "
b111 !
b11 !
b1 !
b0 !
07
0;
0>
0B
15
19
1=
1A
1)
#575000
b1000 !
b1100 !
b1110 !
b1111 !
17
1;
1>
1B
0)
1:
1?
1C
08
0<
0@
1E
0D
00
01
02
14
03
0(
0'
0&
1$
0%
1<
1@
1D
11
12
13
1'
1&
1%
#580000
1#
b111 "
b11 "
b1 "
b0 "
b111 !
b11 !
b1 !
b0 !
16
07
0;
0>
0B
05
09
0=
0A
1)
0:
0?
0C
18
0E
10
04
1(
0$
0<
0@
0D
01
02
03
0'
0&
0%
#585000
b1000 !
b1100 !
b1110 !
b1111 !
17
1;
1>
1B
0)
1:
08
1<
1@
1D
1?
00
11
12
13
0(
1'
1&
1%
0<
1C
01
0'
0@
02
0&
1E
0D
14
03
1$
0%
#590000
b1000 "
b1100 "
b1110 "
b1111 "
b111 !
b11 !
b1 !
b0 !
07
0;
0>
0B
15
19
1=
1A
1)
#595000
b1000 !
b1100 !
b1110 !
b1111 !
17
1;
1>
1B
0)
18
1<
1@
1D
10
11
12
13
1(
1'
1&
1%
#600000
0#
b111 "
b11 "
b1 "
b0 "
b111 !
b11 !
b1 !
b0 !
06
07
0;
0>
0B
05
09
0=
0A
1)
0:
0?
0C
08
0E
00
04
0(
0$
0<
0@
0D
01
02
03
0'
0&
0%
#605000
b1000 !
b1100 !
b1110 !
b1111 !
17
1;
1>
1B
0)
18
1<
1@
1D
10
11
12
13
1(
1'
1&
1%
#610000
b1000 "
b1100 "
b1110 "
b1111 "
b111 !
b11 !
b1 !
b0 !
07
0;
0>
0B
15
19
1=
1A
1)
#615000
b1000 !
b1100 !
b1110 !
b1111 !
17
1;
1>
1B
0)
1:
1?
1C
08
0<
0@
1E
0D
00
01
02
14
03
0(
0'
0&
1$
0%
1<
1@
1D
11
12
13
1'
1&
1%
#620000
1#
b111 "
b11 "
b1 "
b0 "
b111 !
b11 !
b1 !
b0 !
16
07
0;
0>
0B
05
09
0=
0A
1)
0:
0?
0C
18
0E
10
04
1(
0$
0<
0@
0D
01
02
03
0'
0&
0%
#625000
b1000 !
b1100 !
b1110 !
b1111 !
17
1;
1>
1B
0)
1:
08
1<
1@
1D
1?
00
11
12
13
0(
1'
1&
1%
0<
1C
01
0'
0@
02
0&
1E
0D
14
03
1$
0%
#630000
b1000 "
b1100 "
b1110 "
b1111 "
b111 !
b11 !
b1 !
b0 !
07
0;
0>
0B
15
19
1=
1A
1)
#635000
b1000 !
b1100 !
b1110 !
b1111 !
17
1;
1>
1B
0)
18
1<
1@
1D
10
11
12
13
1(
1'
1&
1%
#640000
0#
b111 "
b11 "
b1 "
b0 "
b111 !
b11 !
b1 !
b0 !
06
07
0;
0>
0B
05
09
0=
0A
1)
0:
0?
0C
08
0E
00
04
0(
0$
0<
0@
0D
01
02
03
0'
0&
0%
#645000
b1000 !
b1100 !
b1110 !
b1111 !
17
1;
1>
1B
0)
18
1<
1@
1D
10
11
12
13
1(
1'
1&
1%
#650000
b1000 "
b1100 "
b1110 "
b1111 "
b111 !
b11 !
b1 !
b0 !
07
0;
0>
0B
15
19
1=
1A
1)
#655000
b1000 !
b1100 !
b1110 !
b1111 !
17
1;
1>
1B
0)
1:
1?
1C
08
0<
0@
1E
0D
00
01
02
14
03
0(
0'
0&
1$
0%
1<
1@
1D
11
12
13
1'
1&
1%
#660000
1#
b111 "
b11 "
b1 "
b0 "
b111 !
b11 !
b1 !
b0 !
16
07
0;
0>
0B
05
09
0=
0A
1)
0:
0?
0C
18
0E
10
04
1(
0$
0<
0@
0D
01
02
03
0'
0&
0%
#665000
b1000 !
b1100 !
b1110 !
b1111 !
17
1;
1>
1B
0)
1:
08
1<
1@
1D
1?
00
11
12
13
0(
1'
1&
1%
0<
1C
01
0'
0@
02
0&
1E
0D
14
03
1$
0%
#670000
b1000 "
b1100 "
b1110 "
b1111 "
b111 !
b11 !
b1 !
b0 !
07
0;
0>
0B
15
19
1=
1A
1)
#675000
b1000 !
b1100 !
b1110 !
b1111 !
17
1;
1>
1B
0)
18
1<
1@
1D
10
11
12
13
1(
1'
1&
1%
#680000
0#
b111 "
b11 "
b1 "
b0 "
b111 !
b11 !
b1 !
b0 !
06
07
0;
0>
0B
05
09
0=
0A
1)
0:
0?
0C
08
0E
00
04
0(
0$
0<
0@
0D
01
02
03
0'
0&
0%
#685000
b1000 !
b1100 !
b1110 !
b1111 !
17
1;
1>
1B
0)
18
1<
1@
1D
10
11
12
13
1(
1'
1&
1%
#690000
b1000 "
b1100 "
b1110 "
b1111 "
b111 !
b11 !
b1 !
b0 !
07
0;
0>
0B
15
19
1=
1A
1)
#695000
b1000 !
b1100 !
b1110 !
b1111 !
17
1;
1>
1B
0)
1:
1?
1C
08
0<
0@
1E
0D
00
01
02
14
03
0(
0'
0&
1$
0%
1<
1@
1D
11
12
13
1'
1&
1%
#700000
1#
b111 "
b11 "
b1 "
b0 "
b111 !
b11 !
b1 !
b0 !
16
07
0;
0>
0B
05
09
0=
0A
1)
0:
0?
0C
18
0E
10
04
1(
0$
0<
0@
0D
01
02
03
0'
0&
0%
#705000
b1000 !
b1100 !
b1110 !
b1111 !
17
1;
1>
1B
0)
1:
08
1<
1@
1D
1?
00
11
12
13
0(
1'
1&
1%
0<
1C
01
0'
0@
02
0&
1E
0D
14
03
1$
0%
#710000
b1000 "
b1100 "
b1110 "
b1111 "
b111 !
b11 !
b1 !
b0 !
07
0;
0>
0B
15
19
1=
1A
1)
#715000
b1000 !
b1100 !
b1110 !
b1111 !
17
1;
1>
1B
0)
18
1<
1@
1D
10
11
12
13
1(
1'
1&
1%
#720000
0#
b111 "
b11 "
b1 "
b0 "
b111 !
b11 !
b1 !
b0 !
06
07
0;
0>
0B
05
09
0=
0A
1)
0:
0?
0C
08
0E
00
04
0(
0$
0<
0@
0D
01
02
03
0'
0&
0%
#725000
b1000 !
b1100 !
b1110 !
b1111 !
17
1;
1>
1B
0)
18
1<
1@
1D
10
11
12
13
1(
1'
1&
1%
#730000
b1000 "
b1100 "
b1110 "
b1111 "
b111 !
b11 !
b1 !
b0 !
07
0;
0>
0B
15
19
1=
1A
1)
#735000
b1000 !
b1100 !
b1110 !
b1111 !
17
1;
1>
1B
0)
1:
1?
1C
08
0<
0@
1E
0D
00
01
02
14
03
0(
0'
0&
1$
0%
1<
1@
1D
11
12
13
1'
1&
1%
