CarryLookahead/simulation/qsim/Lookahead.msim.vcd
$comment
	File created using the following command:
		vcd file Lookahead.msim.vcd -direction
$end
$date
	Mon Sep 24 16:35:40 2018
$end
$version
	ModelSim Version 10.1d
$end
$timescale
	1ps
$end
$scope module Lookahead_vlg_vec_tst $end
$var reg 32 ! a [31:0] $end
$var reg 32 " b [31:0] $end
$var reg 1 # cin $end
$var reg 1 $ clock $end
$var wire 1 % cout $end
$var wire 1 & s [31] $end
$var wire 1 ' s [30] $end
$var wire 1 ( s [29] $end
$var wire 1 ) s [28] $end
$var wire 1 * s [27] $end
$var wire 1 + s [26] $end
$var wire 1 , s [25] $end
$var wire 1 - s [24] $end
$var wire 1 . s [23] $end
$var wire 1 / s [22] $end
$var wire 1 0 s [21] $end
$var wire 1 1 s [20] $end
$var wire 1 2 s [19] $end
$var wire 1 3 s [18] $end
$var wire 1 4 s [17] $end
$var wire 1 5 s [16] $end
$var wire 1 6 s [15] $end
$var wire 1 7 s [14] $end
$var wire 1 8 s [13] $end
$var wire 1 9 s [12] $end
$var wire 1 : s [11] $end
$var wire 1 ; s [10] $end
$var wire 1 < s [9] $end
$var wire 1 = s [8] $end
$var wire 1 > s [7] $end
$var wire 1 ? s [6] $end
$var wire 1 @ s [5] $end
$var wire 1 A s [4] $end
$var wire 1 B s [3] $end
$var wire 1 C s [2] $end
$var wire 1 D s [1] $end
$var wire 1 E s [0] $end
$var wire 1 F sampler $end
$scope module i1 $end
$var wire 1 G gnd $end
$var wire 1 H vcc $end
$var wire 1 I unknown $end
$var tri1 1 J devclrn $end
$var tri1 1 K devpor $end
$var tri1 1 L devoe $end
$var wire 1 M c[21]~4_combout $end
$var wire 1 N c[19]~5_combout $end
$var wire 1 O c[17]~6_combout $end
$var wire 1 P b[30]~input_o $end
$var wire 1 Q a[28]~input_o $end
$var wire 1 R a[14]~input_o $end
$var wire 1 S a[3]~input_o $end
$var wire 1 T a[13]~input_o $end
$var wire 1 U b[15]~input_o $end
$var wire 1 V b[23]~input_o $end
$var wire 1 W a[29]~input_o $end
$var wire 1 X a[31]~input_o $end
$var wire 1 Y PET1|Qreg[30]~feeder_combout $end
$var wire 1 Z PET0|Qreg[28]~feeder_combout $end
$var wire 1 [ PET0|Qreg[3]~feeder_combout $end
$var wire 1 \ PET1|Qreg[15]~feeder_combout $end
$var wire 1 ] PET1|Qreg[23]~feeder_combout $end
$var wire 1 ^ PET0|Qreg[31]~feeder_combout $end
$var wire 1 _ s[0]~output_o $end
$var wire 1 ` s[1]~output_o $end
$var wire 1 a s[2]~output_o $end
$var wire 1 b s[3]~output_o $end
$var wire 1 c s[4]~output_o $end
$var wire 1 d s[5]~output_o $end
$var wire 1 e s[6]~output_o $end
$var wire 1 f s[7]~output_o $end
$var wire 1 g s[8]~output_o $end
$var wire 1 h s[9]~output_o $end
$var wire 1 i s[10]~output_o $end
$var wire 1 j s[11]~output_o $end
$var wire 1 k s[12]~output_o $end
$var wire 1 l s[13]~output_o $end
$var wire 1 m s[14]~output_o $end
$var wire 1 n s[15]~output_o $end
$var wire 1 o s[16]~output_o $end
$var wire 1 p s[17]~output_o $end
$var wire 1 q s[18]~output_o $end
$var wire 1 r s[19]~output_o $end
$var wire 1 s s[20]~output_o $end
$var wire 1 t s[21]~output_o $end
$var wire 1 u s[22]~output_o $end
$var wire 1 v s[23]~output_o $end
$var wire 1 w s[24]~output_o $end
$var wire 1 x s[25]~output_o $end
$var wire 1 y s[26]~output_o $end
$var wire 1 z s[27]~output_o $end
$var wire 1 { s[28]~output_o $end
$var wire 1 | s[29]~output_o $end
$var wire 1 } s[30]~output_o $end
$var wire 1 ~ s[31]~output_o $end
$var wire 1 !! cout~output_o $end
$var wire 1 "! clock~input_o $end
$var wire 1 #! clock~inputclkctrl_outclk $end
$var wire 1 $! cin~input_o $end
$var wire 1 %! b[0]~input_o $end
$var wire 1 &! PET1|Qreg[0]~feeder_combout $end
$var wire 1 '! fio_s[0]~0_combout $end
$var wire 1 (! b[1]~input_o $end
$var wire 1 )! PET1|Qreg[1]~feeder_combout $end
$var wire 1 *! a[0]~input_o $end
$var wire 1 +! PET0|Qreg[0]~feeder_combout $end
$var wire 1 ,! c[1]~14_combout $end
$var wire 1 -! c[1]~15_combout $end
$var wire 1 .! b[2]~input_o $end
$var wire 1 /! c[2]~46_combout $end
$var wire 1 0! fio_s[2]~1_combout $end
$var wire 1 1! a[2]~input_o $end
$var wire 1 2! a[1]~input_o $end
$var wire 1 3! c[3]~16_combout $end
$var wire 1 4! c[3]~17_combout $end
$var wire 1 5! b[3]~input_o $end
$var wire 1 6! c[3]~13_combout $end
$var wire 1 7! a[4]~input_o $end
$var wire 1 8! PET0|Qreg[4]~feeder_combout $end
$var wire 1 9! b[4]~input_o $end
$var wire 1 :! fio_s[4]~2_combout $end
$var wire 1 ;! a[5]~input_o $end
$var wire 1 <! c[5]~12_combout $end
$var wire 1 =! c[4]~18_combout $end
$var wire 1 >! c[5]~19_combout $end
$var wire 1 ?! b[5]~input_o $end
$var wire 1 @! c[6]~20_combout $end
$var wire 1 A! a[6]~input_o $end
$var wire 1 B! b[6]~input_o $end
$var wire 1 C! fio_s[6]~3_combout $end
$var wire 1 D! b[7]~input_o $end
$var wire 1 E! c[7]~21_combout $end
$var wire 1 F! c[7]~11_combout $end
$var wire 1 G! b[8]~input_o $end
$var wire 1 H! a[7]~input_o $end
$var wire 1 I! c[8]~22_combout $end
$var wire 1 J! a[8]~input_o $end
$var wire 1 K! fio_s[8]~4_combout $end
$var wire 1 L! c[9]~10_combout $end
$var wire 1 M! b[9]~input_o $end
$var wire 1 N! a[9]~input_o $end
$var wire 1 O! a[10]~input_o $end
$var wire 1 P! b[10]~input_o $end
$var wire 1 Q! fio_s[10]~5_combout $end
$var wire 1 R! a[11]~input_o $end
$var wire 1 S! PET0|Qreg[11]~feeder_combout $end
$var wire 1 T! b[11]~input_o $end
$var wire 1 U! c[9]~23_combout $end
$var wire 1 V! c[10]~24_combout $end
$var wire 1 W! c[11]~25_combout $end
$var wire 1 X! b[12]~input_o $end
$var wire 1 Y! a[12]~input_o $end
$var wire 1 Z! c[11]~9_combout $end
$var wire 1 [! c[12]~26_combout $end
$var wire 1 \! fio_s[12]~6_combout $end
$var wire 1 ]! c[13]~8_combout $end
$var wire 1 ^! c[13]~27_combout $end
$var wire 1 _! b[13]~input_o $end
$var wire 1 `! b[14]~input_o $end
$var wire 1 a! c[14]~28_combout $end
$var wire 1 b! fio_s[14]~7_combout $end
$var wire 1 c! c[15]~7_combout $end
$var wire 1 d! a[15]~input_o $end
$var wire 1 e! c[15]~29_combout $end
$var wire 1 f! a[16]~input_o $end
$var wire 1 g! PET0|Qreg[16]~feeder_combout $end
$var wire 1 h! c[16]~30_combout $end
$var wire 1 i! fio_s[16]~8_combout $end
$var wire 1 j! a[17]~input_o $end
$var wire 1 k! b[17]~input_o $end
$var wire 1 l! b[16]~input_o $end
$var wire 1 m! c[17]~31_combout $end
$var wire 1 n! b[18]~input_o $end
$var wire 1 o! c[18]~32_combout $end
$var wire 1 p! fio_s[18]~9_combout $end
$var wire 1 q! a[19]~input_o $end
$var wire 1 r! b[19]~input_o $end
$var wire 1 s! PET1|Qreg[19]~feeder_combout $end
$var wire 1 t! a[18]~input_o $end
$var wire 1 u! PET0|Qreg[18]~feeder_combout $end
$var wire 1 v! c[19]~33_combout $end
$var wire 1 w! a[20]~input_o $end
$var wire 1 x! PET0|Qreg[20]~feeder_combout $end
$var wire 1 y! c[20]~34_combout $end
$var wire 1 z! fio_s[20]~10_combout $end
$var wire 1 {! a[21]~input_o $end
$var wire 1 |! b[21]~input_o $end
$var wire 1 }! b[20]~input_o $end
$var wire 1 ~! PET1|Qreg[20]~feeder_combout $end
$var wire 1 !" c[21]~35_combout $end
$var wire 1 "" b[22]~input_o $end
$var wire 1 #" c[22]~36_combout $end
$var wire 1 $" fio_s[22]~11_combout $end
$var wire 1 %" a[23]~input_o $end
$var wire 1 &" PET0|Qreg[23]~feeder_combout $end
$var wire 1 '" a[22]~input_o $end
$var wire 1 (" c[23]~3_combout $end
$var wire 1 )" c[23]~37_combout $end
$var wire 1 *" b[24]~input_o $end
$var wire 1 +" PET1|Qreg[24]~feeder_combout $end
$var wire 1 ," c[24]~38_combout $end
$var wire 1 -" fio_s[24]~12_combout $end
$var wire 1 ." b[25]~input_o $end
$var wire 1 /" PET1|Qreg[25]~feeder_combout $end
$var wire 1 0" c[25]~39_combout $end
$var wire 1 1" a[24]~input_o $end
$var wire 1 2" PET0|Qreg[24]~feeder_combout $end
$var wire 1 3" c[25]~2_combout $end
$var wire 1 4" a[25]~input_o $end
$var wire 1 5" c[26]~40_combout $end
$var wire 1 6" b[26]~input_o $end
$var wire 1 7" fio_s[26]~13_combout $end
$var wire 1 8" a[27]~input_o $end
$var wire 1 9" PET0|Qreg[27]~feeder_combout $end
$var wire 1 :" b[27]~input_o $end
$var wire 1 ;" PET1|Qreg[27]~feeder_combout $end
$var wire 1 <" a[26]~input_o $end
$var wire 1 =" c[27]~41_combout $end
$var wire 1 >" b[28]~input_o $end
$var wire 1 ?" PET1|Qreg[28]~feeder_combout $end
$var wire 1 @" c[27]~1_combout $end
$var wire 1 A" c[28]~42_combout $end
$var wire 1 B" fio_s[28]~14_combout $end
$var wire 1 C" c[29]~0_combout $end
$var wire 1 D" b[29]~input_o $end
$var wire 1 E" c[29]~43_combout $end
$var wire 1 F" a[30]~input_o $end
$var wire 1 G" c[30]~44_combout $end
$var wire 1 H" fio_s[30]~15_combout $end
$var wire 1 I" b[31]~input_o $end
$var wire 1 J" c~45_combout $end
$var wire 1 K" PET1|Qreg [31] $end
$var wire 1 L" PET1|Qreg [30] $end
$var wire 1 M" PET1|Qreg [29] $end
$var wire 1 N" PET1|Qreg [28] $end
$var wire 1 O" PET1|Qreg [27] $end
$var wire 1 P" PET1|Qreg [26] $end
$var wire 1 Q" PET1|Qreg [25] $end
$var wire 1 R" PET1|Qreg [24] $end
$var wire 1 S" PET1|Qreg [23] $end
$var wire 1 T" PET1|Qreg [22] $end
$var wire 1 U" PET1|Qreg [21] $end
$var wire 1 V" PET1|Qreg [20] $end
$var wire 1 W" PET1|Qreg [19] $end
$var wire 1 X" PET1|Qreg [18] $end
$var wire 1 Y" PET1|Qreg [17] $end
$var wire 1 Z" PET1|Qreg [16] $end
$var wire 1 [" PET1|Qreg [15] $end
$var wire 1 \" PET1|Qreg [14] $end
$var wire 1 ]" PET1|Qreg [13] $end
$var wire 1 ^" PET1|Qreg [12] $end
$var wire 1 _" PET1|Qreg [11] $end
$var wire 1 `" PET1|Qreg [10] $end
$var wire 1 a" PET1|Qreg [9] $end
$var wire 1 b" PET1|Qreg [8] $end
$var wire 1 c" PET1|Qreg [7] $end
$var wire 1 d" PET1|Qreg [6] $end
$var wire 1 e" PET1|Qreg [5] $end
$var wire 1 f" PET1|Qreg [4] $end
$var wire 1 g" PET1|Qreg [3] $end
$var wire 1 h" PET1|Qreg [2] $end
$var wire 1 i" PET1|Qreg [1] $end
$var wire 1 j" PET1|Qreg [0] $end
$var wire 1 k" PET2|Qreg [31] $end
$var wire 1 l" PET2|Qreg [30] $end
$var wire 1 m" PET2|Qreg [29] $end
$var wire 1 n" PET2|Qreg [28] $end
$var wire 1 o" PET2|Qreg [27] $end
$var wire 1 p" PET2|Qreg [26] $end
$var wire 1 q" PET2|Qreg [25] $end
$var wire 1 r" PET2|Qreg [24] $end
$var wire 1 s" PET2|Qreg [23] $end
$var wire 1 t" PET2|Qreg [22] $end
$var wire 1 u" PET2|Qreg [21] $end
$var wire 1 v" PET2|Qreg [20] $end
$var wire 1 w" PET2|Qreg [19] $end
$var wire 1 x" PET2|Qreg [18] $end
$var wire 1 y" PET2|Qreg [17] $end
$var wire 1 z" PET2|Qreg [16] $end
$var wire 1 {" PET2|Qreg [15] $end
$var wire 1 |" PET2|Qreg [14] $end
$var wire 1 }" PET2|Qreg [13] $end
$var wire 1 ~" PET2|Qreg [12] $end
$var wire 1 !# PET2|Qreg [11] $end
$var wire 1 "# PET2|Qreg [10] $end
$var wire 1 ## PET2|Qreg [9] $end
$var wire 1 $# PET2|Qreg [8] $end
$var wire 1 %# PET2|Qreg [7] $end
$var wire 1 &# PET2|Qreg [6] $end
$var wire 1 '# PET2|Qreg [5] $end
$var wire 1 (# PET2|Qreg [4] $end
$var wire 1 )# PET2|Qreg [3] $end
$var wire 1 *# PET2|Qreg [2] $end
$var wire 1 +# PET2|Qreg [1] $end
$var wire 1 ,# PET2|Qreg [0] $end
$var wire 1 -# fio_s [31] $end
$var wire 1 .# fio_s [30] $end
$var wire 1 /# fio_s [29] $end
$var wire 1 0# fio_s [28] $end
$var wire 1 1# fio_s [27] $end
$var wire 1 2# fio_s [26] $end
$var wire 1 3# fio_s [25] $end
$var wire 1 4# fio_s [24] $end
$var wire 1 5# fio_s [23] $end
$var wire 1 6# fio_s [22] $end
$var wire 1 7# fio_s [21] $end
$var wire 1 8# fio_s [20] $end
$var wire 1 9# fio_s [19] $end
$var wire 1 :# fio_s [18] $end
$var wire 1 ;# fio_s [17] $end
$var wire 1 <# fio_s [16] $end
$var wire 1 =# fio_s [15] $end
$var wire 1 ># fio_s [14] $end
$var wire 1 ?# fio_s [13] $end
$var wire 1 @# fio_s [12] $end
$var wire 1 A# fio_s [11] $end
$var wire 1 B# fio_s [10] $end
$var wire 1 C# fio_s [9] $end
$var wire 1 D# fio_s [8] $end
$var wire 1 E# fio_s [7] $end
$var wire 1 F# fio_s [6] $end
$var wire 1 G# fio_s [5] $end
$var wire 1 H# fio_s [4] $end
$var wire 1 I# fio_s [3] $end
$var wire 1 J# fio_s [2] $end
$var wire 1 K# fio_s [1] $end
$var wire 1 L# fio_s [0] $end
$var wire 1 M# PET0|Qreg [31] $end
$var wire 1 N# PET0|Qreg [30] $end
$var wire 1 O# PET0|Qreg [29] $end
$var wire 1 P# PET0|Qreg [28] $end
$var wire 1 Q# PET0|Qreg [27] $end
$var wire 1 R# PET0|Qreg [26] $end
$var wire 1 S# PET0|Qreg [25] $end
$var wire 1 T# PET0|Qreg [24] $end
$var wire 1 U# PET0|Qreg [23] $end
$var wire 1 V# PET0|Qreg [22] $end
$var wire 1 W# PET0|Qreg [21] $end
$var wire 1 X# PET0|Qreg [20] $end
$var wire 1 Y# PET0|Qreg [19] $end
$var wire 1 Z# PET0|Qreg [18] $end
$var wire 1 [# PET0|Qreg [17] $end
$var wire 1 \# PET0|Qreg [16] $end
$var wire 1 ]# PET0|Qreg [15] $end
$var wire 1 ^# PET0|Qreg [14] $end
$var wire 1 _# PET0|Qreg [13] $end
$var wire 1 `# PET0|Qreg [12] $end
$var wire 1 a# PET0|Qreg [11] $end
$var wire 1 b# PET0|Qreg [10] $end
$var wire 1 c# PET0|Qreg [9] $end
$var wire 1 d# PET0|Qreg [8] $end
$var wire 1 e# PET0|Qreg [7] $end
$var wire 1 f# PET0|Qreg [6] $end
$var wire 1 g# PET0|Qreg [5] $end
$var wire 1 h# PET0|Qreg [4] $end
$var wire 1 i# PET0|Qreg [3] $end
$var wire 1 j# PET0|Qreg [2] $end
$var wire 1 k# PET0|Qreg [1] $end
$var wire 1 l# PET0|Qreg [0] $end
$upscope $end
$upscope $end
$enddefinitions $end
#0
$dumpvars
b0 !
b0 "
0#
0$
0%
0E
0D
0C
0B
0A
0@
0?
0>
0=
0<
0;
0:
09
08
07
06
05
04
03
02
01
00
0/
0.
0-
0,
0+
0*
0)
0(
0'
0&
xF
0G
1H
xI
1J
1K
1L
0M
0N
0O
0P
0Q
0R
0S
0T
0U
0V
0W
0X
0Y
0Z
0[
0\
0]
0^
0_
0`
0a
0b
0c
0d
0e
0f
0g
0h
0i
0j
0k
0l
0m
0n
0o
0p
0q
0r
0s
0t
0u
0v
0w
0x
0y
0z
0{
0|
0}
0~
0!!
0"!
0#!
0$!
0%!
0&!
0'!
0(!
0)!
0*!
0+!
0,!
0-!
0.!
0/!
00!
01!
02!
03!
04!
05!
06!
07!
08!
09!
0:!
0;!
0<!
0=!
0>!
0?!
0@!
0A!
0B!
0C!
0D!
0E!
0F!
0G!
0H!
0I!
0J!
0K!
0L!
0M!
0N!
0O!
0P!
0Q!
0R!
0S!
0T!
0U!
0V!
0W!
0X!
0Y!
0Z!
0[!
0\!
0]!
0^!
0_!
0`!
0a!
0b!
0c!
0d!
0e!
0f!
0g!
0h!
0i!
0j!
0k!
0l!
0m!
0n!
0o!
0p!
0q!
0r!
0s!
0t!
0u!
0v!
0w!
0x!
0y!
0z!
0{!
0|!
0}!
0~!
0!"
0""
0#"
0$"
0%"
0&"
0'"
0("
0)"
0*"
0+"
0,"
0-"
0."
0/"
00"
01"
02"
03"
04"
05"
06"
07"
08"
09"
0:"
0;"
0<"
0="
0>"
0?"
0@"
0A"
0B"
0C"
0D"
0E"
0F"
0G"
0H"
0I"
0J"
0j"
0i"
0h"
0g"
0f"
0e"
0d"
0c"
0b"
0a"
0`"
0_"
0^"
0]"
0\"
0["
0Z"
0Y"
0X"
0W"
0V"
0U"
0T"
0S"
0R"
0Q"
0P"
0O"
0N"
0M"
0L"
0K"
0,#
0+#
0*#
0)#
0(#
0'#
0&#
0%#
0$#
0##
0"#
0!#
0~"
0}"
0|"
0{"
0z"
0y"
0x"
0w"
0v"
0u"
0t"
0s"
0r"
0q"
0p"
0o"
0n"
0m"
0l"
0k"
zL#
0K#
zJ#
0I#
zH#
0G#
zF#
0E#
zD#
0C#
zB#
0A#
z@#
0?#
z>#
0=#
z<#
0;#
z:#
09#
z8#
07#
z6#
05#
z4#
03#
z2#
01#
z0#
0/#
z.#
0-#
0l#
0k#
0j#
0i#
0h#
0g#
0f#
0e#
0d#
0c#
0b#
0a#
0`#
0_#
0^#
0]#
0\#
0[#
0Z#
0Y#
0X#
0W#
0V#
0U#
0T#
0S#
0R#
0Q#
0P#
0O#
0N#
0M#
$end
#5000
1$
1"!
1#!
0F
#10000
b1 !
b10 "
0$
1(!
1*!
0"!
0#!
1F
1)!
1+!
#15000
1$
1"!
1#!
0F
1l#
1i"
1'!
1K#
#20000
b11 !
b110 "
b10 !
b100 "
0$
0(!
1.!
0*!
12!
0"!
0#!
1F
0)!
0+!
#25000
1$
1"!
1#!
0F
1k#
1h"
0l#
0i"
1+#
1,#
10!
0'!
1`
1_
1D
1E
#30000
b11 !
b110 "
0$
1(!
1*!
0"!
0#!
1F
1)!
1+!
#35000
1$
1"!
1#!
0F
1l#
1i"
1*#
0,#
1'!
13!
1/!
0K#
1a
0_
1C
0E
14!
00!
1I#
#40000
b111 !
b1110 "
b101 !
b1010 "
b100 !
b1000 "
0$
0(!
0.!
15!
0*!
02!
11!
0"!
0#!
1F
0)!
0+!
#45000
1$
1"!
1#!
0F
1g"
0k#
1j#
0h"
0l#
0i"
1)#
0*#
0+#
1,#
1=!
0I#
03!
0/!
0'!
1b
0a
0`
1_
1B
0C
0D
1E
1:!
04!
10!
0=!
1I#
0:!
#50000
b101 !
b1010 "
0$
1(!
1*!
0"!
0#!
1F
1)!
1+!
#55000
1$
1"!
1#!
0F
1l#
1i"
1*#
0,#
1'!
1K#
1a
0_
1C
0E
#60000
b111 !
b1110 "
b110 !
b1100 "
0$
0(!
1.!
0*!
12!
0"!
0#!
1F
0)!
0+!
#65000
1$
1"!
1#!
0F
1k#
1h"
0l#
0i"
1+#
1,#
16!
00!
0'!
1`
1_
1D
1E
1=!
0I#
1:!
#70000
b111 !
b1110 "
0$
1(!
1*!
0"!
0#!
1F
1)!
1+!
#75000
1$
1"!
1#!
0F
1l#
1i"
1(#
0)#
0*#
0,#
1'!
13!
1/!
0K#
1c
0b
0a
0_
1A
0B
0C
0E
14!
10!
#80000
b1111 !
b11110 "
b1011 !
b10110 "
b1001 !
b10010 "
b1000 !
b10000 "
0$
0(!
0.!
05!
19!
0*!
02!
01!
1S
0"!
0#!
1F
0)!
0+!
1[
#85000
1$
1"!
1#!
0F
1f"
0g"
0k#
0j#
0h"
0l#
0i"
1i#
1*#
0+#
1,#
1>!
0:!
03!
0/!
06!
04!
0'!
1a
0`
1_
1C
0D
1E
1G#
00!
0=!
1I#
0>!
1:!
0G#
#90000
b1001 !
b10010 "
0$
1(!
1*!
0"!
0#!
1F
1)!
1+!
#95000
1$
1"!
1#!
0F
1l#
1i"
1)#
0*#
0,#
1'!
1K#
1b
0a
0_
1B
0C
0E
#100000
b1011 !
b10110 "
b1010 !
b10100 "
0$
0(!
1.!
0*!
12!
0"!
0#!
1F
0)!
0+!
#105000
1$
1"!
1#!
0F
1k#
1h"
0l#
0i"
1+#
1,#
10!
0'!
1`
1_
1D
1E
#110000
b1011 !
b10110 "
0$
1(!
1*!
0"!
0#!
1F
1)!
1+!
#115000
1$
1"!
1#!
0F
1l#
1i"
1*#
0,#
1'!
13!
1/!
0K#
1a
0_
1C
0E
14!
00!
1=!
0I#
1>!
0:!
1G#
#120000
b1111 !
b11110 "
b1101 !
b11010 "
b1100 !
b11000 "
0$
0(!
0.!
15!
0*!
02!
11!
0"!
0#!
1F
0)!
0+!
#125000
1$
1"!
1#!
0F
1g"
0k#
1j#
0h"
0l#
0i"
1'#
0(#
0)#
0*#
0+#
1,#
1I#
03!
0/!
0'!
1d
0c
0b
0a
0`
1_
1@
0A
0B
0C
0D
1E
04!
10!
0I#
#130000
b1101 !
b11010 "
0$
1(!
1*!
0"!
0#!
1F
1)!
1+!
#135000
1$
1"!
1#!
0F
1l#
1i"
1*#
0,#
1'!
1K#
1a
0_
1C
0E
#140000
b1111 !
b11110 "
b1110 !
b11100 "
0$
0(!
1.!
0*!
12!
0"!
0#!
1F
0)!
0+!
#145000
1$
1"!
1#!
0F
1k#
1h"
0l#
0i"
1+#
1,#
16!
00!
0'!
1`
1_
1D
1E
1I#
#150000
b1111 !
b11110 "
0$
1(!
1*!
0"!
0#!
1F
1)!
1+!
#155000
1$
1"!
1#!
0F
1l#
1i"
1)#
0*#
0,#
1'!
13!
1/!
0K#
1b
0a
0_
1B
0C
0E
14!
10!
#160000
b11111 !
b111110 "
b10111 !
b101110 "
b10011 !
b100110 "
b10001 !
b100010 "
b10000 !
b100000 "
0$
0(!
0.!
05!
09!
1?!
0*!
02!
01!
0S
17!
0"!
0#!
1F
0)!
0+!
0[
18!
#165000
1$
1"!
1#!
0F
1e"
0f"
1h#
0g"
0k#
0j#
0h"
0l#
0i"
0i#
1*#
0+#
1,#
1@!
0G#
0=!
03!
0/!
06!
04!
0'!
1a
0`
1_
1C
0D
1E
1C!
0>!
1:!
00!
0I#
0@!
1G#
0C!
#170000
b10001 !
b100010 "
0$
1(!
1*!
0"!
0#!
1F
1)!
1+!
#175000
1$
1"!
1#!
0F
1l#
1i"
1(#
0)#
0*#
0,#
1'!
1K#
1c
0b
0a
0_
1A
0B
0C
0E
#180000
b10011 !
b100110 "
b10010 !
b100100 "
0$
0(!
1.!
0*!
12!
0"!
0#!
1F
0)!
0+!
#185000
1$
1"!
1#!
0F
1k#
1h"
0l#
0i"
1+#
1,#
10!
0'!
1`
1_
1D
1E
#190000
b10011 !
b100110 "
0$
1(!
1*!
0"!
0#!
1F
1)!
1+!
#195000
1$
1"!
1#!
0F
1l#
1i"
1*#
0,#
1'!
13!
1/!
0K#
1a
0_
1C
0E
14!
00!
1I#
#200000
b10111 !
b101110 "
b10101 !
b101010 "
b10100 !
b101000 "
0$
0(!
0.!
15!
0*!
02!
11!
0"!
0#!
1F
0)!
0+!
#205000
1$
1"!
1#!
0F
1g"
0k#
1j#
0h"
0l#
0i"
1)#
0*#
0+#
1,#
1=!
0I#
03!
0/!
0'!
1b
0a
0`
1_
1B
0C
0D
1E
1>!
0:!
04!
10!
1@!
0G#
0=!
1I#
1C!
0>!
1:!
0@!
1G#
0C!
#210000
b10101 !
b101010 "
0$
1(!
1*!
0"!
0#!
1F
1)!
1+!
#215000
1$
1"!
1#!
0F
1l#
1i"
1*#
0,#
1'!
1K#
1a
0_
1C
0E
#220000
b10111 !
b101110 "
b10110 !
b101100 "
0$
0(!
1.!
0*!
12!
0"!
0#!
1F
0)!
0+!
#225000
1$
1"!
1#!
0F
1k#
1h"
0l#
0i"
1+#
1,#
16!
00!
0'!
1`
1_
1D
1E
1=!
0I#
1>!
0:!
1@!
0G#
1C!
#230000
b10111 !
b101110 "
0$
1(!
1*!
0"!
0#!
1F
1)!
1+!
#235000
1$
1"!
1#!
0F
1l#
1i"
1&#
0'#
0(#
0)#
0*#
0,#
1'!
13!
1/!
0K#
1e
0d
0c
0b
0a
0_
1?
0@
0A
0B
0C
0E
14!
10!
#240000
b11111 !
b111110 "
b11011 !
b110110 "
b11001 !
b110010 "
b11000 !
b110000 "
0$
0(!
0.!
05!
19!
0*!
02!
01!
1S
0"!
0#!
1F
0)!
0+!
1[
#245000
1$
1"!
1#!
0F
1f"
0g"
0k#
0j#
0h"
0l#
0i"
1i#
1*#
0+#
1,#
1<!
1:!
03!
0/!
06!
04!
0'!
1a
0`
1_
1C
0D
1E
00!
0=!
1I#
0>!
0:!
#250000
b11001 !
b110010 "
0$
1(!
1*!
0"!
0#!
1F
1)!
1+!
#255000
1$
1"!
1#!
0F
1l#
1i"
1)#
0*#
0,#
1'!
1K#
1b
0a
0_
1B
0C
0E
#260000
b11011 !
b110110 "
b11010 !
b110100 "
0$
0(!
1.!
0*!
12!
0"!
0#!
1F
0)!
0+!
#265000
1$
1"!
1#!
0F
1k#
1h"
0l#
0i"
1+#
1,#
10!
0'!
1`
1_
1D
1E
#270000
b11011 !
b110110 "
0$
1(!
1*!
0"!
0#!
1F
1)!
1+!
#275000
1$
1"!
1#!
0F
1l#
1i"
1*#
0,#
1'!
13!
1/!
0K#
1a
0_
1C
0E
14!
00!
1=!
0I#
1>!
1:!
#280000
b11111 !
b111110 "
b11101 !
b111010 "
b11100 !
b111000 "
0$
0(!
0.!
15!
0*!
02!
11!
0"!
0#!
1F
0)!
0+!
#285000
1$
1"!
1#!
0F
1g"
0k#
1j#
0h"
0l#
0i"
1(#
0)#
0*#
0+#
1,#
1I#
03!
0/!
0'!
1c
0b
0a
0`
1_
1A
0B
0C
0D
1E
04!
10!
0I#
#290000
b11101 !
b111010 "
0$
1(!
1*!
0"!
0#!
1F
1)!
1+!
#295000
1$
1"!
1#!
0F
1l#
1i"
1*#
0,#
1'!
1K#
1a
0_
1C
0E
#300000
b11111 !
b111110 "
b11110 !
b111100 "
0$
0(!
1.!
0*!
12!
0"!
0#!
1F
0)!
0+!
#305000
1$
1"!
1#!
0F
1k#
1h"
0l#
0i"
1+#
1,#
16!
00!
0'!
1`
1_
1D
1E
1I#
#310000
b11111 !
b111110 "
0$
1(!
1*!
0"!
0#!
1F
1)!
1+!
#315000
1$
1"!
1#!
0F
1l#
1i"
1)#
0*#
0,#
1'!
13!
1/!
0K#
1b
0a
0_
1B
0C
0E
14!
10!
#320000
b111111 !
b1111110 "
b101111 !
b1011110 "
b100111 !
b1001110 "
b100011 !
b1000110 "
b100001 !
b1000010 "
b100000 !
b1000000 "
0$
0(!
0.!
05!
09!
0?!
1B!
0*!
02!
01!
0S
07!
1;!
0"!
0#!
1F
0)!
0+!
0[
08!
#325000
1$
1"!
1#!
0F
1d"
0e"
1g#
0f"
0h#
0g"
0k#
0j#
0h"
0l#
0i"
0i#
1*#
0+#
1,#
1E!
0C!
0>!
0<!
0=!
03!
0/!
06!
04!
0'!
1a
0`
1_
1C
0D
1E
1E#
0@!
1G#
0:!
00!
0I#
0E!
1C!
0E#
#330000
b100001 !
b1000010 "
0$
1(!
1*!
0"!
0#!
1F
1)!
1+!
#335000
1$
1"!
1#!
0F
1l#
1i"
1'#
0(#
0)#
0*#
0,#
1'!
1K#
1d
0c
0b
0a
0_
1@
0A
0B
0C
0E
#340000
b100011 !
b1000110 "
b100010 !
b1000100 "
0$
0(!
1.!
0*!
12!
0"!
0#!
1F
0)!
0+!
#345000
1$
1"!
1#!
0F
1k#
1h"
0l#
0i"
1+#
1,#
10!
0'!
1`
1_
1D
1E
#350000
b100011 !
b1000110 "
0$
1(!
1*!
0"!
0#!
1F
1)!
1+!
#355000
1$
1"!
1#!
0F
1l#
1i"
1*#
0,#
1'!
13!
1/!
0K#
1a
0_
1C
0E
14!
00!
1I#
#360000
b100111 !
b1001110 "
b100101 !
b1001010 "
b100100 !
b1001000 "
0$
0(!
0.!
15!
0*!
02!
11!
0"!
0#!
1F
0)!
0+!
#365000
1$
1"!
1#!
0F
1g"
0k#
1j#
0h"
0l#
0i"
1)#
0*#
0+#
1,#
1=!
0I#
03!
0/!
0'!
1b
0a
0`
1_
1B
0C
0D
1E
1:!
04!
10!
0=!
1I#
0:!
#370000
b100101 !
b1001010 "
0$
1(!
1*!
0"!
0#!
1F
1)!
1+!
#375000
1$
1"!
1#!
0F
1l#
1i"
1*#
0,#
1'!
1K#
1a
0_
1C
0E
#380000
b100111 !
b1001110 "
b100110 !
b1001100 "
0$
0(!
1.!
0*!
12!
0"!
0#!
1F
0)!
0+!
#385000
1$
1"!
1#!
0F
1k#
1h"
0l#
0i"
1+#
1,#
16!
00!
0'!
1`
1_
1D
1E
1=!
0I#
1:!
#390000
b100111 !
b1001110 "
0$
1(!
1*!
0"!
0#!
1F
1)!
1+!
#395000
1$
1"!
1#!
0F
1l#
1i"
1(#
0)#
0*#
0,#
1'!
13!
1/!
0K#
1c
0b
0a
0_
1A
0B
0C
0E
14!
10!
#400000
b101111 !
b1011110 "
b101011 !
b1010110 "
b101001 !
b1010010 "
b101000 !
b1010000 "
0$
0(!
0.!
05!
19!
0*!
02!
01!
1S
0"!
0#!
1F
0)!
0+!
1[
